HEADER,,,,,,,,
Project Name:,SHELL IWS 2017 - MANPOWER BLANKET CE - MANPOWER COSTSSS,,,,,,,
Project Duration:,"MARCH 1 -31, 2017",,,,,,,
CE Code:,MSE-SHELL-1703-0070,,,,,,,
Client:,SHELL PHILIPPINES INC.,,,,,,,
Address:,"145 Valero St., Salcedo Village, Makati City, Philippines",,,,,,,
Attention To:,,,,,,,,
Date Submitted:,,,,,,,,
,,,,,,,,
TOTALS,,,,,,,,
Total Cost Estimate:,23000,,,,,,,
Plus  ASF:,2300,,,,,,,
Grand Total:,25300,,,,,,,
,,,,,,,,
ITEMS,,,,,,,,
ITEM CODE,ITEM NAME,DESCRIPTION,UOM,HEADER 1,HEADER 2,HEADER 3,UNIT COST,TOTAL
1001,Project Coordinator,nationwide coverages,unit,1,1,10,50,500
1002,Meal Allowance,1 meal,unit,1,1,10,50,500
1003,Communication Allowance,,unit,1,1,10,50,500
1004,Transportation,,unit,1,1,10,50,500
1005,Encoder / Admin,,unit,1,1,10,50,500
1006,Meal Allowance,1 meal,unit,1,1,10,50,500
1007,Contingency,,areas,400,1,1,50,20000
