HEADER,,,,,,,,,,,,
Project Name:,TEST 2017-04-27,,,,,,,,,,,
Project Duration:,"MARCH 1 -31, 2017",,,,,,,,,,,
CE Code:,TEST-2-2017-04-27,,,,,,,,,,,
Client:,SAMPLE CLIENT,,,,,,,,,,,
Address:,SAMPLE ADDRESS,,,,,,,,,,,
Attention To:,,,,,,,,,,,,
Date Submitted:,26/04/2017,,,,,,,,,,,
,,,,,,,,,,,,
TOTALS,,,,,,,,,,,,
Project Cost:,25300,,,,,,,,,,,
ASF:,1150,,,,,,,,,,,
Creative Fee:,,,,,,,,,,,,
Total CE (EX VAT),24150,,,,,,,,,,,
Total CE (VAT INC),27048,,,,,,,,,,,
,,,,,,,,,,,,
ITEMS,,,,,,,,,,,,
ITEM CODE,ITEM NAME,DESCRIPTION,UNIT COST,UOM,HEADER 1,HEADER 2,HEADER 3,HEADER 4,MULTIPLIER PRODUCT,ASF,ASF AMOUNT,TOTAL
