HEADER,,,,,,,,,,,,
Project Name:,,,,,,,,,,,,
Project Duration:,,,,,,,,,,,,
CE Code:,2,,,,,,,,,,,
Client:,,,,,,,,,,,,
Address:,,,,,,,,,,,,
Attention To:,,,,,,,,,,,,
Date Submitted:,,,,,,,,,,,,
,,,,,,,,,,,,
TOTALS,,,,,,,,,,,,
Project Cost:,25300,,,,,,,,,,,
ASF:,1150,,,,,,,,,,,
Creative Fee:,,,,,,,,,,,,
Total CE (EX VAT),24150,,,,,,,,,,,
Total CE (VAT INC),27048,,,,,,,,,,,
,,,,,,,,,,,,
ITEMS,,,,,,,,,,,,
ITEM CODE,ITEM NAME,DESCRIPTION,UNIT COST,UOM,HEADER 1,HEADER 2,HEADER 3,HEADER 4,MULTIPLIER PRODUCT,ASF,ASF AMOUNT,TOTAL
1001,Project Coordinator,nationwide coverages,50,unit,1,1,10,1,10,5%,25,525
1002,Meal Allowance,1 meal,50,unit,1,1,10,1,10,5%,25,525
1003,Communication Allowance,,50,unit,1,1,10,1,10,5%,25,525
1004,Transportation,,50,unit,1,1,10,1,10,5%,25,525
1005,Encoder / Admin,,50,unit,1,1,10,1,10,5%,25,525
1006,Meal Allowance,1 meal,50,unit,1,1,10,1,10,5%,25,525
1007,Contingency,,50,areas,400,1,1,1,400,5%,1000,21000
